1,Unspecified,55
2,Cancelled Appointment,55
919,Abrasion without infection,145.8
682.9,Abscess acute NOS,83
706.1,Acne cystic and vulgaris,102.8
692.3,Acneiform drug eruption,115.7
701.9216.9,Achrochordon,107.4
702,Actinic keratosis,131.9
216,Adenoma,98.2
272.8,Adiposis dolorosa,63.7
704.01,Alopecia areata,142.2
757.4,Alopecia congenital,121.2
704,Alopecia unspecified,96.4
216,Angiokeratoma NOS,104.1
214,Angiolipoma of face,120
214.1,Angiolipoma skin not face,149.8
228.01,Angioma benign,111.3
691.8,Atopic dermatitis,117.1
701.3,Atrophy skin,119.6
607.1,Balanitis,57.8
607.81,Balanitis xerotica obliterans,93.4
173,Basal cell carcinoma,116.6
919.4,Bee sting,102.7
216,Benign neoplasm,104.2
989.5,Bite arthropod,153.5
529.3,Black hairy tongue,100.9
232,Bowen's disease skin,98.5
949.11,Burn 1st degree erythema,75
949,Burn unspecified,117.8
782,Burning sensation skin,107.7
709.09,Cafe-au-lait macules,67.3
700,Callus,154.1
112.3,Candidiasis intertrigo nails skin,103.8
448.9,Capillary disease,61.3
78.3,Cat scratch disease,124.4
681.9,Cellulitis and abscess of unspecified digit,154.9
682.8,Cellulitisabscess,155.4
682.9,Cellulitis NOS,60.8
91,Chancre syphilitic,145.8
528.5,Cheilitis,144.1
228.01,Cherry angioma,130.1
380,Chondrodermatitis nodularis helicis,153.2
133.8,Chigger bites,64.9
709.2,Cicatrix,98.3
700,Clavus corn,90.2
702.8,Cutaneous horn,95.3
126.9,Cutaneous larva migrans creeping eruption NOS,98.1
706.2,Cyst epidermal,56.1
757.39,Darier disease,118.2
998.32,Dehiscence of wound,62.2
692.7,Dermatitis actinic,154.9
691.8,Dermatitis atopic,148.8
692.4,Dermatitis chemical,99.7
692.9,Dermatitis contact allergic eczematousNOS,136.6
695.89,Dermatitis exfoliative,127.6
691,Dermatitis diaper,95
373.32,Dermatitis eyelid contact,151.6
698.4,Dermatitis factitial,157.7
694,Dermatitis herpetiformis,153.3
693,Dermatitis internal medicine,73.4
695.3,Dermatitis perioral,58.6
692.6,Dermatitis poison ivy or oak,80.3
690.18,Dematitis seborrheic,118.3
454.1,Dermatitis stasis,97.9
110.5,Dermatophytosis corporis,123.1
110.4,Dermatophytosis pedis,128.4
110.1,Dermatophytosis unguium,125.1
708.3,Dermographism,65.4
695.4,Discoid lupus erythematosus,108.6
705.81,Dyshidrosis  pompholyx,123.8
459.89,Ecchymoses,72.7
692.9,Eczema allergic nummular,125.7
706.8,Eczema asteatotic xerotic,96.3
782.3,Edema localized NOS,131.9
706.2,Epidermal cyst,72.1
695.1,Erythema multiforme,118.3
695.2,Erythema nodosum,127.8
695.9,Erythematous condition erythema unspecified NOS,153.9
726.91,Exostosis of unspecified site,158.2
528.7,Erythroplakia of mouth  tongue,156.6
233.5,Erythroplasia of queyrat penis,129.1
782.1,Exanthem nonspecific,75.5
57.9,Exanthem viral unspecified,66.4
681.01,Felon,74.9
215,Fibroma connective tissue,151.3
704.8,Folliculitis,88.8
709.4,Foreign body granuloma skin,76.3
680.9,Furuncle,70.8
54.1,Genital herpes,86.9
78.19,Genital warts,125.6
228.01,Glomus tumor skin,85.2
695.89,Granuloma annulare,157.2
99.2,Granuloma inguinale,158.6
228.01,Hemangioma skin and subcutaneous tissue,120
54.1,Herpes simplex genital,88.8
54.9,Herpes simplex NOS,95.4
54.13,Herpes simplex penis,142.4
53.12,Herpes zoster post-herpetic trigeminal neuralgia,124.3
54.2,Herpes zoster with ophthalmicus,89.7
53.9,Herpes zoster without complications,110
705.83,Hidradenitis suppurativa,59.7
704.1,Hirsutism NOS,93.7
705.21,Hyperhidrosis,95.5
709.09,Hyper  hypopigmentation,94.4
701.4,Hypertrophic scar,142.9
701.1,Ichthyosis acquired,77
684,Impetigo,129.4
686.9,Infection of skinsubcutaneous NOS,118.9
919.4,Insect bite nonvenomous without infection,145.4
919.5,Insect bite nonvenomous with infection,96.8
695.89,Intertrigo,156.7
176,Kaposi sarcoma skin,69.2
701.4,Keloid,125.5
757.39,Keratoderma,135.3
757.39,Keratosis pilaris,131
709.09,Lentigo,103.2
528.6,Leukoplakia of lips  mouth,156.6
697.8,Lichen planus acute  chronic hypertrophic,70.7
697,Lichen planus NOS,138.5
701,Lichen sclerosus et atrophicus,143.1
698.3,Lichenification Lichen simplex chronicus,105
214,Lipoma face,101.2
214.1,Lipoma other skin  subcutaneous,157.2
58.69,Long-term medication use,74.5
695.4,Lupus erythematosus skin,149.2
710,Lupus erythematosus systemic,154.9
172,Melanoma,91.3
709.09,Melasma,55.9
706.2,Milia milium,146.1
374.84,Milia eyelid,135.7
78,Molluscum contagioisum,124.6
701,Morphea,100.3
202.1,Mycosis fungoides,129.8
703.9,Nail disorder,121
703.8,Nail dystrophy,94
703,Nail ingrown with infection,84.5
238.2,Neoplasm uncertain behavior of skin,132.8
239.2,Neoplasm of unspecified nature of bone soft tissue and skin,122.6
691.8,Neurodermatitis,113.7
216,Nevus dermal,65.6
795.51,Nonspecific reaction to tuberculin skin test without active tuberculosis,112.1
782,Notalgia paresthetica,94.3
692.9,Nummular eczema,105
681.02,Onychia and paronychia of finger,148.9
681.11,Onychia and paronychia of toe,121.2
703.8,Onycholysis,157.2
110.1,Onychomycosis,100.9
690.8,Parakeratosis,78.6
696.2,Parapsoriasis,62.4
782,Paresthesia,87.5
681.02,Paronychia finger,144
681.11,Paronychia toe,143.1
132,Pediculosis capitis,68.7
132.1,Pediculosis corporis,86.4
132.2,Pediculosis pubis,62.8
704.8,Perifolliculitis scalp NOS,101.8
694.5,Pemphigoid bullous,108
694.4,Pemphigus vulgaris,98.8
695.3,Perioral dermatitis,154.3
10.83,Personal history of malignant neoplasm of skin,81.5
10.82,Personal history of melanoma,63.7
782.7,Petechia,106.5
692.79,Photodermatitis,90.8
698.4,Picker's nodule,61.5
709,Pigmentation abnormality,110.2
704.41,Pilar cyst,68.1
696.5,Pityriasis alba,148.1
696.3,Pityriasis rosea,114
696.4,Pityriasis rubra pilaris,147.9
111,Pityriasis versicolor,121.1
696.2,PLEVA,94
692.72,Polymorphous light eruption,88.7
277.1,Porphyria,84.3
757.32,Port wine stain,130.5
53.12,Postherpetic neuralgia trigeminal,120.2
998.59,Postoperative infection,75.1
709.09,Progressive pigmentary dermatosis,156
698.3,Prurigo nodularis,141.4
698.2,Prurigo NOS,104.6
698,Pruritus ani,105
698.9,Pruritus NOS,102.2
696.1,Psoriasis except arthropathic,139.4
696,Psoriatic arthropathy,151.6
287,Purpura allergic,81.8
287.2,Purpura Bateman,108.1
709.1,Purpura primary,81.9
686.9,Pustule skin infection NOS,59.6
686.01,Pyoderma gangrenosum,79.6
686.09,Pyoderma skin,64.7
686.1,Pyogenic granuloma skin,101.6
443,Raynaud disease,99.3
695.3,Rhinophyma,92.3
701.8,Rhytidosis,155.3
695.3,Rosacea,56.8
135,Sarcoidosis,84
133,Scabies,107.8
701.4,Scar fibrosis hypertrophic keloid,95.6
709.2,Scar  fibrosis of skin NOS,158.2
34.1,Scarlatina,110.1
709.09,Schamberg disease,135.3
710.1,Scleroderma systemic sclerosis,80.5
701,Scleroderma circumscribed localized,81.2
690.1,Seborrheic dermatitis,104.7
706.9,Sebaceous hyperplasia,153
702.11,Seborrheic keratosis inflamed,130.2
702.19,Seborrheic keratosis non-inflamed,124.1
999.5,Serum sickness eruption,108.7
202.2,Sezary disease,73.9
53.9,Shingles without complications,94.1
701.9,Skin tag,137
686.9,Soft tissue infection,97.7
173,Specified malignant neoplasm of the skin,57.4
919.4,Spider bite nonvenoumous without infection,152.5
448.1,Spider veins,75.9
173,Squamous cell cancer skin,119.5
454.1,Stasis,107.3
998.59,Stitch abscess,68.6
701.3,Striae,152.4
702.8,Stucco keratosis,59.6
692.71,Sunburn,63.3
692.72,Sun damaged skin NOS,138.1
67,Surgical follow-up no complications,139.4
58.32,Suture removal,89.7
705.9,Sweat gland disorder NOS,74.2
91,Syphilis primary genital,76.3
91.9,Syphilis secondary NOS,106.6
709.09,Tattoo,153.9
448,Telangiectasia hereditary,146
448.1,Telangiectasia spider,158.3
448.9,Telangiectasia unspecified,117.9
704.02,Telogen effluvium,154.1
112,Thrush,63.1
110.5,Tinea corporis,124.3
110.3,Tinea cruris,56.7
110.4,Tinea pedis,89
111,Tinea versicolor,81.6
529.1,Tongue geographic,88.5
704.42, Trichilemmal cyst,98
707.06,Ulcer; ankle,89.2
707.12,Ulcer; calf,90.3
707.07,Ulcer; heel,65.7
707.1,Ulcer; lower limb,131.9
707.13,Ulcer other parts of foot,86
173,Unspecified malignant neoplasm of the skin,81.2
708,Urticaria allergic,94.5
708.8,Urticaria chronic,71.3
708.3,Urticaria dermatographic,119.6
995.1,Urticaria giant angioedema,121.3
708.9,Urticaria NOS,72.1
447.6,Vasculitis,62.4
287,Vasculitis allergic,114
454.1,Varicose vein lower extremity with inflammation,128.1
454.9,Varicose vein lower extremity without ulcer or inflammation,98.3
78.19,Verruca plana,106.7
78.12,Verruca plantar,118.8
78.19,Verruca venereal,132
78.1,Verruca vulgaris,144.1
919.2,Vesicle multiple unspecified,147.8
709.8,Vesicular eruption,118
709.01,Vitiligo of skin,147.6
998.59,Wound abscess,155.4
272.2,Xanthoma NOS,149.9
706.8,Xerosis,146.9
